…
# tidied the dataframe, including adding OR and CI estimate

nest_fit_logistic_all %>% 
  mutate(OR = exp(estimate),
         conf.low = exp(conf.low),
         conf.high = exp(conf.high), 
         log_OR = estimate) %>%
  filter(term == "victim_racenon-white") %>%
  select(city_state, term, OR, conf.low, conf.high)
```

    ## # A tibble: 47 x 5
    ##    city_state      term                    OR conf.low conf.high
    ##    <chr>           <chr>                <dbl>    <dbl>     <dbl>
    ##  1 Albuquerque, NM victim_racenon-white 0.739   0.445      1.22 
    ##  2 Atlanta, GA     victim_racenon-white 0.753   0.424      1.30 
    ##  3 Baltimore, MD   victim_racenon-white 0.441   0.312      0.620
    ##  4 Baton Rouge, LA victim_racenon-white 0.668   0.304      1.41 
    ##  5 Birmingham, AL  victim_racenon-white 1.04    0.612      1.75 
    ##  6 Boston, MA      victim_racenon-white 0.127   0.0472     0.285
    ##  7 Buffalo, NY     victim_racenon-white 0.392   0.211      0.714
    ##  8 Charlotte, NC   victim_racenon-white 0.558   0.313      0.951
    ##  9 Chicago, IL     victim_racenon-white 0.562   0.432      0.734
    ## 10 Cincinnati, OH  victim_racenon-white 0.318   0.180      0.541
    ## # ... with 37 more rows
…
